Image_Analysis
…
CTCF = Integrated Density  (Area of selected cell X Mean fluorescence of background readings)

More information here: https://theolb.readthedocs.io/en/latest/imaging/measuring-cell-fluorescence-using-imagej.html

# Take the mean of the background measurements
background_df<- image_df %>%
  group_by(strain, treatment, worm, measurement_type, life_stage, experiment, ID) %>%
  summarize(Mean_Background = mean(mean)) %>% 
  filter(measurement_type == "background") %>%
  ungroup() %>%
  dplyr::select(ID, Mean_Background)
background_df

## # A tibble: 118 x 2
##    ID                          Mean_Background
##    <chr>                                 <dbl>
##  1 JM149_Rep1_L4440_RNAi_L1_1          0.00625
##  2 JM149_Rep2_L4440_RNAi_L1_1          0.00385
##  3 JM149_Rep3_L4440_RNAi_L1_1          0.006  
##  4 JM149_Rep2_L4440_RNAi_L1_10         0.006  
##  5 JM149_Rep3_L4440_RNAi_L1_10         0.00375
##  6 JM149_Rep1_L4440_RNAi_L1_2          0.0168 
##  7 JM149_Rep2_L4440_RNAi_L1_2          0.00525
##  8 JM149_Rep3_L4440_RNAi_L1_2          0.00375
##  9 JM149_Rep1_L4440_RNAi_L1_3          0.00675
## 10 JM149_Rep2_L4440_RNAi_L1_3          0.00375
## #  with 108 more rows

# calculate CTCF for each worm
image_ctcf <- image_df %>%
  filter(measurement_type == "GFP") %>%
  dplyr::select(strain, ID, treatment, worm, area, life_stage, experiment, intDen) %>%
  inner_join(background_df, by = "ID") %>%
  rowwise() %>%
  mutate(CTCF = intDen - (area*Mean_Background) )
image_ctcf

## Source: local data frame [118 x 10]
## Groups: <by row>
## 
## # A tibble: 118 x 10
##    strain ID    treatment worm   area life_stage experiment intDen
##    <chr>  <chr> <fct>     <chr> <dbl> <chr>      <chr>       <dbl>
##  1 JM149  JM14 ELT-2     1      8.01 L1         Rep1_ELT-  20.7 
##  2 JM149  JM14 ELT-2     2      6.54 L1         Rep1_ELT-  21.1 
##  3 JM149  JM14 ELT-2     3      9.72 L1         Rep1_ELT-  36.2 
##  4 JM149  JM14 ELT-2     4      6.14 L1         Rep1_ELT-  22.0 
##  5 JM149  JM14 ELT-2     5      7.81 L1         Rep1_ELT-  30.7 
##  6 JM149  JM14 ELT-2     6     11.5  L1         Rep1_ELT-  24.5 
##  7 JM149  JM14 ELT-2     7     11.9  L1         Rep1_ELT-  29.5 
##  8 JM149  JM14 ELT-2     8     13.8  L1         Rep1_ELT-  25.0 
##  9 JM149  JM14 ELT-2     9      8.39 L1         Rep1_ELT-  14.6 
## 10 JM149  JM14 L4440     1     12.1  L1         Rep1_L444   8.80
## #  with 108 more rows, and 2 more variables: Mean_Background <dbl>, CTCF <dbl>
…
